{
  "entry": {
    "main": [
      "./scripts/main.js",
      "./styles/main.scss"
    ]
  },
  "publicPath": "/dist/",
  "devUrl": "http://frontendboilerplate.loc",
  "proxyUrl": "http://localhost:8080",
  "cacheBusting": "[name]_[hash:8]",
  "watch": [
    "resources/views/templates/**/*.hbs",
    "resources/assets/**/*.{scss,css,js,jpeg,jpg,png,svg,woff,woff2,ttf,otf,mov,ico,mp4,webm}"
  ]
}
