<?xml version="1.0" encoding="UTF-8"?>
<svg width="312px" height="133px" viewBox="0 0 312 133" version="1.1" xmlns="http://www.w3.org/2000/svg" xmlns:xlink="http://www.w3.org/1999/xlink">
    <!-- Generator: Sketch 58 (84663) - https://sketch.com -->
    <title>Group Copy 4</title>
    <desc>Created with Sketch.</desc>
    <g id="Style-Guide" stroke="none" stroke-width="1" fill="none" fill-rule="evenodd">
        <g id="Typography---Tablet/Mobile-Dark" transform="translate(-149.000000, -79.000000)">
            <g id="Group-Copy-4" transform="translate(149.000000, 79.500000)">
                <path d="M162.278021,86.4766737 C162.226611,85.3261895 161.854232,84.3716211 161.166442,83.6129684 C160.477263,82.8557053 159.497684,82.4763789 158.224926,82.4763789 C157.633011,82.4763789 157.084168,82.5847579 156.577011,82.8029053 C156.072632,83.0210526 155.628,83.3184 155.244505,83.6921684 C154.861011,84.0673263 154.555326,84.4938947 154.328842,84.9732632 C154.102358,85.4526316 153.971747,85.9528421 153.937011,86.4766737 L162.278021,86.4766737 Z M164.082947,87.0519158 L164.082947,87.4437474 C164.082947,87.5840842 164.073221,87.7313684 164.055158,87.8883789 L153.912,87.8883789 C153.928674,88.4983579 154.050947,89.0736 154.277432,89.6141053 C154.503916,90.1532211 154.817937,90.6242526 155.219495,91.0258105 C155.619663,91.4273684 156.090695,91.7441684 156.6312,91.9803789 C157.170316,92.2152 157.755284,92.3333053 158.381937,92.3333053 C159.305937,92.3333053 160.103495,92.1207158 160.774611,91.6927579 C161.445726,91.2648 161.955663,90.7729263 162.304421,90.2143579 L163.638316,91.2606316 C162.904674,92.1846316 162.098779,92.8474105 161.219242,93.2475789 C160.338316,93.6491368 159.393474,93.8492211 158.381937,93.8492211 C157.476,93.8492211 156.633979,93.6880421 155.858653,93.3656842 C155.083326,93.0433263 154.416379,92.5945263 153.857811,92.0192842 C153.302021,91.4440421 152.861558,90.7645895 152.5392,89.9795368 C152.216842,89.1958737 152.055663,88.3427368 152.055663,87.4173474 C152.055663,86.4947368 152.212674,85.6388211 152.525305,84.8551579 C152.839326,84.0714947 153.275621,83.3906526 153.834189,82.8154105 C154.389979,82.2401684 155.044421,81.7927579 155.794737,81.4690105 C156.543663,81.1466526 157.353726,80.9854737 158.224926,80.9854737 C159.183663,80.9854737 160.029853,81.1466526 160.760716,81.4690105 C161.494358,81.7927579 162.102947,82.2276632 162.592042,82.7765053 C163.079747,83.3253474 163.450737,83.9658947 163.702232,84.6981474 C163.955116,85.4304 164.082947,86.2154526 164.082947,87.0519158 L164.082947,87.0519158 Z" id="Fill-1" fill="#FFF4E4"></path>
                <polygon id="Fill-3" fill="#FFF4E4" points="169.556501 87.2080926 165.033764 81.3000505 167.308333 81.3000505 170.654185 85.9533979 174.001427 81.3000505 176.145385 81.3000505 171.700459 87.1288926 176.563617 93.5357558 174.264038 93.5357558 170.627785 88.4377768 166.890101 93.5357558 164.746143 93.5357558"></polygon>
                <path d="M189.477246,87.4170695 C189.477246,86.7390063 189.373036,86.0970695 189.163225,85.4954274 C188.954804,84.8951747 188.653288,84.3727326 188.261457,83.9267116 C187.869625,83.48208 187.386088,83.1291537 186.810846,82.8693221 C186.235604,82.6067116 185.581162,82.4761011 184.848909,82.4761011 C184.170846,82.4761011 183.542804,82.6025432 182.967562,82.8554274 C182.39232,83.1069221 181.894888,83.45568 181.476657,83.9017011 C181.058425,84.3449432 180.731899,84.8687747 180.495688,85.4704168 C180.260867,86.0706695 180.142762,86.7209432 180.142762,87.4170695 C180.142762,88.1145853 180.260867,88.7648589 180.495688,89.3651116 C180.731899,89.9667537 181.058425,90.4864168 181.476657,90.9199326 C181.894888,91.3576168 182.39232,91.7022063 182.967562,91.9550905 C183.542804,92.2065853 184.170846,92.3330274 184.848909,92.3330274 C185.581162,92.3330274 186.235604,92.2065853 186.810846,91.9550905 C187.386088,91.7022063 187.869625,91.3520589 188.261457,90.9088168 C188.653288,90.4627958 188.954804,89.9403537 189.163225,89.3401011 C189.373036,88.7384589 189.477246,88.0965221 189.477246,87.4170695 L189.477246,87.4170695 Z M180.353962,99.8111747 L178.574046,99.8111747 L178.574046,81.3006063 L180.353962,81.3006063 L180.353962,83.4167747 L180.430383,83.4167747 C180.936152,82.6164379 181.611436,82.0092379 182.456236,81.5993432 C183.303815,81.1922274 184.16112,80.9851958 185.03232,80.9851958 C185.991057,80.9851958 186.858088,81.1519326 187.634804,81.4826274 C188.408741,81.8147116 189.072909,82.2662905 189.621752,82.8415326 C190.170594,83.4167747 190.597162,84.0962274 190.901457,84.88128 C191.207141,85.6663326 191.359983,86.5125221 191.359983,87.4170695 C191.359983,88.3230063 191.207141,89.1705853 190.901457,89.9542484 C190.597162,90.7393011 190.170594,91.4173642 189.621752,91.9926063 C189.072909,92.5678484 188.408741,93.0208168 187.634804,93.3515116 C186.858088,93.6835958 185.991057,93.8489432 185.03232,93.8489432 C184.16112,93.8489432 183.303815,93.6433011 182.456236,93.2347958 C181.611436,92.8262905 180.936152,92.2371537 180.430383,91.4701642 L180.353962,91.4701642 L180.353962,99.8111747 Z" id="Fill-5" fill="#FFF4E4"></path>
                <path d="M203.669192,86.4766737 C203.617781,85.3261895 203.245402,84.3716211 202.557613,83.6129684 C201.868434,82.8557053 200.888855,82.4763789 199.616097,82.4763789 C199.022792,82.4763789 198.475339,82.5847579 197.968181,82.8029053 C197.463802,83.0210526 197.019171,83.3184 196.635676,83.6921684 C196.252181,84.0673263 195.946497,84.4938947 195.720013,84.9732632 C195.493528,85.4526316 195.362918,85.9528421 195.328181,86.4766737 L203.669192,86.4766737 Z M205.474118,87.0519158 L205.474118,87.4437474 C205.474118,87.5840842 205.464392,87.7313684 205.446328,87.8883789 L195.303171,87.8883789 C195.319844,88.4983579 195.440728,89.0736 195.668602,89.6141053 C195.895086,90.1532211 196.209107,90.6242526 196.610665,91.0258105 C197.010834,91.4273684 197.481865,91.7441684 198.022371,91.9803789 C198.561486,92.2152 199.146455,92.3333053 199.773107,92.3333053 C200.697107,92.3333053 201.494665,92.1207158 202.165781,91.6927579 C202.835507,91.2648 203.346834,90.7729263 203.695592,90.2143579 L205.029486,91.2606316 C204.295844,92.1846316 203.489949,92.8474105 202.610413,93.2475789 C201.729486,93.6491368 200.784644,93.8492211 199.773107,93.8492211 C198.867171,93.8492211 198.025149,93.6880421 197.249823,93.3656842 C196.474497,93.0433263 195.807549,92.5945263 195.248981,92.0192842 C194.691802,91.4440421 194.252728,90.7645895 193.928981,89.9795368 C193.608013,89.1958737 193.446834,88.3427368 193.446834,87.4173474 C193.446834,86.4947368 193.603844,85.6388211 193.916476,84.8551579 C194.230497,84.0714947 194.666792,83.3906526 195.223971,82.8154105 C195.781149,82.2401684 196.435592,81.7927579 197.185907,81.4690105 C197.934834,81.1466526 198.744897,80.9854737 199.616097,80.9854737 C200.574834,80.9854737 201.421023,81.1466526 202.151886,81.4690105 C202.885528,81.7927579 203.494118,82.2276632 203.983213,82.7765053 C204.470918,83.3253474 204.841907,83.9658947 205.093402,84.6981474 C205.346286,85.4304 205.474118,86.2154526 205.474118,87.0519158 L205.474118,87.0519158 Z" id="Fill-7" fill="#FFF4E4"></path>
                <path d="M208.233752,82.7113389 C208.215688,82.1888968 208.190678,81.7178653 208.155941,81.2996337 L209.855267,81.2996337 C209.888615,81.6317179 209.916404,81.9971495 209.934467,82.3973179 C209.951141,82.7974863 209.959478,83.1295705 209.959478,83.3907916 L210.012278,83.3907916 C210.359646,82.6766021 210.883478,82.0971916 211.580994,81.65256 C212.27712,81.2079284 213.062173,80.9856126 213.934762,80.9856126 C214.161246,80.9856126 214.365499,80.9953389 214.548909,81.0120126 C214.73232,81.0300758 214.919899,81.0634232 215.110257,81.1176126 L214.875436,82.8155495 C214.771225,82.7822021 214.596152,82.7460758 214.351604,82.7113389 C214.108446,82.6766021 213.865288,82.6599284 213.620741,82.6599284 C213.149709,82.6599284 212.695352,82.7460758 212.260446,82.91976 C211.825541,83.0934442 211.446215,83.36856 211.122467,83.7409389 C210.800109,84.1160968 210.538888,84.5926863 210.340194,85.1762653 C210.137331,85.7584547 210.038678,86.4587495 210.038678,87.27576 L210.038678,93.5353389 L208.261541,93.5353389 L208.261541,83.9924337 C208.261541,83.6617389 208.251815,83.2351705 208.233752,82.7113389" id="Fill-9" fill="#FFF4E4"></path>
                <path d="M217.033011,93.5352 L218.810147,93.5352 L218.810147,81.2994947 L217.033011,81.2994947 L217.033011,93.5352 Z M219.175579,76.5933474 C219.175579,76.9587789 219.044968,77.2602947 218.783747,77.4951158 C218.522526,77.7313263 218.233516,77.8480421 217.920884,77.8480421 C217.606863,77.8480421 217.319242,77.7313263 217.058021,77.4951158 C216.795411,77.2602947 216.666189,76.9587789 216.666189,76.5933474 C216.666189,76.2279158 216.795411,75.9264 217.058021,75.6901895 C217.319242,75.4553684 217.606863,75.3372632 217.920884,75.3372632 C218.233516,75.3372632 218.522526,75.4553684 218.783747,75.6901895 C219.044968,75.9264 219.175579,76.2279158 219.175579,76.5933474 L219.175579,76.5933474 Z" id="Fill-11" fill="#FFF4E4"></path>
                <path d="M231.807423,86.4766737 C231.754623,85.3261895 231.383634,84.3716211 230.695844,83.6129684 C230.006665,82.8557053 229.027086,82.4763789 227.754328,82.4763789 C227.162413,82.4763789 226.612181,82.5847579 226.106413,82.8029053 C225.600644,83.0210526 225.157402,83.3184 224.773907,83.6921684 C224.390413,84.0673263 224.084728,84.4938947 223.858244,84.9732632 C223.63176,85.4526316 223.501149,85.9528421 223.466413,86.4766737 L231.807423,86.4766737 Z M233.61096,87.0519158 L233.61096,87.4437474 C233.61096,87.5840842 233.602623,87.7313684 233.58456,87.8883789 L223.441402,87.8883789 C223.456686,88.4983579 223.57896,89.0736 223.805444,89.6141053 C224.031928,90.1532211 224.347339,90.6242526 224.747507,91.0258105 C225.147676,91.4273684 225.618707,91.7441684 226.160602,91.9803789 C226.699718,92.2152 227.283297,92.3333053 227.909949,92.3333053 C228.835339,92.3333053 229.632897,92.1207158 230.304013,91.6927579 C230.973739,91.2648 231.485065,90.7729263 231.833823,90.2143579 L233.167718,91.2606316 C232.434076,92.1846316 231.628181,92.8474105 230.747255,93.2475789 C229.867718,93.6491368 228.922876,93.8492211 227.909949,93.8492211 C227.004013,93.8492211 226.163381,93.6880421 225.388055,93.3656842 C224.611339,93.0433263 223.945781,92.5945263 223.387213,92.0192842 C222.830034,91.4440421 222.39096,90.7645895 222.067213,89.9795368 C221.744855,89.1958737 221.585065,88.3427368 221.585065,87.4173474 C221.585065,86.4947368 221.740686,85.6388211 222.053318,84.8551579 C222.368728,84.0714947 222.803634,83.3906526 223.362202,82.8154105 C223.919381,82.2401684 224.572434,81.7927579 225.322749,81.4690105 C226.071676,81.1466526 226.883128,80.9854737 227.754328,80.9854737 C228.711676,80.9854737 229.559255,81.1466526 230.290118,81.4690105 C231.02376,81.7927579 231.632349,82.2276632 232.121444,82.7765053 C232.60776,83.3253474 232.980139,83.9658947 233.231634,84.6981474 C233.484518,85.4304 233.61096,86.2154526 233.61096,87.0519158 L233.61096,87.0519158 Z" id="Fill-13" fill="#FFF4E4"></path>
                <path d="M237.992109,81.3001895 C238.026846,81.6308842 238.053246,81.9977053 238.071309,82.3978737 C238.087983,82.7980421 238.09632,83.1287368 238.09632,83.3913474 L238.14912,83.3913474 C238.497878,82.6757684 239.063394,82.0963579 239.849836,81.6531158 C240.632109,81.2084842 241.461625,80.9847789 242.332825,80.9847789 C243.883478,80.9847789 245.047857,81.4474737 245.823183,82.3714737 C246.598509,83.2968632 246.987562,84.5154316 246.987562,86.0313474 L246.987562,93.5358947 L245.207646,93.5358947 L245.207646,86.7649895 C245.207646,86.1202737 245.156236,85.5353053 245.052025,85.0128632 C244.947815,84.4890316 244.768573,84.0416211 244.515688,83.6650737 C244.264194,83.2913053 243.923773,82.9995158 243.495815,82.7897053 C243.069246,82.5812842 242.532909,82.4770737 241.889583,82.4770737 C241.418552,82.4770737 240.960025,82.5715579 240.515394,82.7646947 C240.070762,82.9550526 239.674762,83.2468421 239.326004,83.6400632 C238.977246,84.0318947 238.699352,84.5279368 238.488152,85.1295789 C238.279731,85.7312211 238.176909,86.4412421 238.176909,87.2610316 L238.176909,93.5358947 L236.398383,93.5358947 L236.398383,83.9916 C236.398383,83.6609053 236.388657,83.2357263 236.371983,82.7118947 C236.35392,82.1894526 236.32752,81.7184211 236.292783,81.3001895 L237.992109,81.3001895 Z" id="Fill-14" fill="#FFF4E4"></path>
                <path d="M259.416404,84.0967832 C259.120446,83.6257516 258.689709,83.2394779 258.122804,82.9337937 C257.555899,82.6281095 256.941752,82.4766568 256.278973,82.4766568 C255.564783,82.4766568 254.920067,82.6030989 254.344825,82.8545937 C253.769583,83.1074779 253.27632,83.4562358 252.866425,83.9008674 C252.456531,84.3454989 252.143899,84.8693305 251.925752,85.4695832 C251.707604,86.0712253 251.599225,86.7214989 251.599225,87.4176253 C251.599225,88.1151411 251.707604,88.7598568 251.925752,89.3517726 C252.143899,89.9450779 252.452362,90.4633516 252.852531,90.9079832 C253.254088,91.3526147 253.743183,91.7027621 254.318425,91.9542568 C254.893667,92.2071411 255.538383,92.3335832 256.252573,92.3335832 C257.037625,92.3335832 257.700404,92.1849095 258.23952,91.8875621 C258.780025,91.5929937 259.224657,91.2081095 259.573415,90.7384674 L260.90592,91.7319411 C260.383478,92.3766568 259.742931,92.8907621 258.984278,93.2742568 C258.227015,93.6577516 257.31552,93.8494989 256.252573,93.8494989 C255.260488,93.8494989 254.361499,93.68832 253.559773,93.3659621 C252.758046,93.0422147 252.074425,92.5948042 251.50752,92.0195621 C250.940615,91.44432 250.501541,90.7648674 250.186131,89.9798147 C249.873499,89.1961516 249.716488,88.3430147 249.716488,87.4176253 C249.716488,86.4950147 249.873499,85.6390989 250.186131,84.8554358 C250.501541,84.0703832 250.940615,83.3909305 251.50752,82.8156884 C252.074425,82.2404463 252.758046,81.7930358 253.559773,81.4692884 C254.361499,81.1469305 255.260488,80.9857516 256.252573,80.9857516 C257.072362,80.9857516 257.903267,81.1649937 258.750846,81.5206989 C259.595646,81.8791832 260.279267,82.4071832 260.801709,83.1033095 L259.416404,84.0967832 Z" id="Fill-15" fill="#FFF4E4"></path>
                <path d="M272.103411,86.4766737 C272.050611,85.3261895 271.679621,84.3716211 270.990442,83.6129684 C270.302653,82.8557053 269.321684,82.4763789 268.050316,82.4763789 C267.457011,82.4763789 266.908168,82.5847579 266.4024,82.8029053 C265.896632,83.0210526 265.452,83.3184 265.069895,83.6921684 C264.685011,84.0673263 264.380716,84.4938947 264.154232,84.9732632 C263.926358,85.4526316 263.795747,85.9528421 263.7624,86.4766737 L272.103411,86.4766737 Z M273.906947,87.0519158 L273.906947,87.4437474 C273.906947,87.5840842 273.897221,87.7313684 273.880547,87.8883789 L263.736,87.8883789 C263.752674,88.4983579 263.874947,89.0736 264.101432,89.6141053 C264.327916,90.1532211 264.641937,90.6242526 265.043495,91.0258105 C265.443663,91.4273684 265.914695,91.7441684 266.4552,91.9803789 C266.994316,92.2152 267.579284,92.3333053 268.205937,92.3333053 C269.129937,92.3333053 269.928884,92.1207158 270.598611,91.6927579 C271.268337,91.2648 271.779663,90.7729263 272.128421,90.2143579 L273.462316,91.2606316 C272.730063,92.1846316 271.922779,92.8474105 271.043242,93.2475789 C270.163705,93.6491368 269.217474,93.8492211 268.205937,93.8492211 C267.3,93.8492211 266.459368,93.6880421 265.684042,93.3656842 C264.907326,93.0433263 264.241768,92.5945263 263.6832,92.0192842 C263.124632,91.4440421 262.685558,90.7645895 262.361811,89.9795368 C262.040842,89.1958737 261.879663,88.3427368 261.879663,87.4173474 C261.879663,86.4947368 262.036674,85.6388211 262.349305,84.8551579 C262.663326,84.0714947 263.099621,83.3906526 263.6568,82.8154105 C264.213979,82.2401684 264.868421,81.7927579 265.618737,81.4690105 C266.367663,81.1466526 267.177726,80.9854737 268.050316,80.9854737 C269.007663,80.9854737 269.853853,81.1466526 270.586105,81.4690105 C271.318358,81.7927579 271.928337,82.2276632 272.416042,82.7765053 C272.903747,83.3253474 273.274737,83.9658947 273.527621,84.6981474 C273.779116,85.4304 273.906947,86.2154526 273.906947,87.0519158 L273.906947,87.0519158 Z" id="Fill-16" fill="#FFF4E4"></path>
                <path d="M153.875874,63.9491368 L157.143916,63.9491368 L157.143916,41.4549474 L153.875874,41.4549474 L153.875874,63.9491368 Z M157.817811,32.8026947 C157.817811,33.4765895 157.576042,34.0296 157.096674,34.4603368 C156.615916,34.8938526 156.086526,35.1092211 155.509895,35.1092211 C154.931874,35.1092211 154.403874,34.8938526 153.923116,34.4603368 C153.443747,34.0296 153.201979,33.4765895 153.201979,32.8026947 C153.201979,32.1301895 153.443747,31.5771789 153.923116,31.1450526 C154.403874,30.7115368 154.931874,30.4961684 155.509895,30.4961684 C156.086526,30.4961684 156.615916,30.7115368 157.096674,31.1450526 C157.576042,31.5771789 157.817811,32.1301895 157.817811,32.8026947 L157.817811,32.8026947 Z" id="Fill-17" fill="#FFF4E4"></path>
                <path d="M169.986682,42.1045263 C171.316408,41.2861263 172.797587,40.8776211 174.432998,40.8776211 C175.042977,40.8776211 175.675187,40.9429263 176.331019,41.0707579 C176.98824,41.1999789 177.630177,41.4459158 178.254051,41.8155158 C178.879314,42.1851158 179.455945,42.6728211 179.985335,43.2814105 C180.513335,43.89 180.970472,44.6764421 181.356745,45.6365684 C182.123735,44.0984211 183.172787,42.9215368 184.503903,42.1045263 C185.83224,41.2861263 187.410682,40.8776211 189.23784,40.8776211 C192.08904,40.8776211 194.22744,41.7279789 195.655819,43.4245263 C197.080029,45.1252421 197.794219,47.3664632 197.794219,50.1551368 L197.794219,63.9498316 L194.524787,63.9498316 L194.524787,51.5015368 C194.524787,49.1297053 194.084324,47.2233474 193.203398,45.7810737 C192.322472,44.3374105 190.823229,43.6176632 188.70984,43.6176632 C187.523229,43.6176632 186.521419,43.8580421 185.705798,44.3374105 C184.888787,44.8195579 184.231566,45.4517684 183.734135,46.2382105 C183.236703,47.0232632 182.87544,47.9125263 182.653124,48.906 C182.429419,49.8980842 182.316872,50.9249053 182.316872,51.9809053 L182.316872,63.9498316 L179.04744,63.9498316 L179.04744,50.8276421 C179.04744,49.7382947 178.96824,48.7448211 178.807061,47.8486105 C178.647272,46.9496211 178.366598,46.1881895 177.966429,45.5643158 C177.566261,44.9390526 177.013251,44.4582947 176.308787,44.1220421 C175.602935,43.7857895 174.705335,43.6176632 173.615987,43.6176632 C172.847608,43.6176632 172.069503,43.7941263 171.28584,44.1470526 C170.499398,44.4999789 169.793545,45.0349263 169.169672,45.7574526 C168.545798,46.4772 168.041419,47.3914737 167.655145,48.4974947 C167.27304,49.6021263 167.079903,50.9082316 167.079903,52.4130316 L167.079903,63.9498316 L163.811861,63.9498316 L163.811861,46.4063368 C163.811861,45.7977474 163.793798,45.0126947 163.763229,44.0497895 C163.729882,43.0896632 163.68264,42.2240211 163.618724,41.4542526 L166.743651,41.4542526 C166.807566,42.0642316 166.854808,42.7367368 166.888156,43.4731579 C166.918724,44.2109684 166.936787,44.8195579 166.936787,45.3003158 L167.031272,45.3003158 C167.671819,43.9858737 168.656956,42.9215368 169.986682,42.1045263" id="Fill-18" fill="#FFF4E4"></path>
                <path d="M224.319966,52.7019032 C224.319966,51.4527663 224.128219,50.2744926 223.743335,49.1684716 C223.35984,48.06384 222.80544,47.1023242 222.087082,46.2853137 C221.364556,45.4683032 220.473903,44.8194189 219.419293,44.3372716 C218.360514,43.8579032 217.160008,43.6175242 215.813608,43.6175242 C214.564472,43.6175242 213.409819,43.8509558 212.352429,44.31504 C211.29504,44.7791242 210.382156,45.4210611 209.612387,46.2380716 C208.842619,47.0550821 208.242366,48.0165979 207.81024,49.1212295 C207.378114,50.2272505 207.159966,51.4208084 207.159966,52.7019032 C207.159966,53.9843874 207.378114,55.1765558 207.81024,56.2825768 C208.242366,57.3885979 208.842619,58.3431663 209.612387,59.1435032 C210.382156,59.94384 211.29504,60.57744 212.352429,61.0415242 C213.409819,61.5069979 214.564472,61.73904 215.813608,61.73904 C217.160008,61.73904 218.360514,61.5069979 219.419293,61.0415242 C220.473903,60.57744 221.364556,59.9355032 222.087082,59.1184926 C222.80544,58.3014821 223.35984,57.3399663 223.743335,56.2353347 C224.128219,55.1293137 224.319966,53.95104 224.319966,52.7019032 L224.319966,52.7019032 Z M207.54624,75.4851032 L204.276808,75.4851032 L204.276808,41.4541137 L207.54624,41.4541137 L207.54624,45.3488084 L207.689356,45.3488084 C208.618914,43.8731874 209.861103,42.7616084 211.415924,42.0085137 C212.969356,41.2554189 214.546408,40.8774821 216.149861,40.8774821 C217.911714,40.8774821 219.50544,41.1831663 220.932429,41.7903663 C222.35664,42.4003453 223.576598,43.2340295 224.583966,44.2900295 C225.594114,45.3488084 226.379166,46.5965558 226.940514,48.0402189 C227.499082,49.4824926 227.781145,51.0373137 227.781145,52.7019032 C227.781145,54.3678821 227.499082,55.9227032 226.940514,57.3635874 C226.379166,58.8072505 225.594114,60.0563874 224.583966,61.1137768 C223.576598,62.1711663 222.35664,63.0048505 220.932429,63.61344 C219.50544,64.2220295 217.911714,64.5263242 216.149861,64.5263242 C214.546408,64.5263242 212.969356,64.1483874 211.415924,63.3952926 C209.861103,62.6435874 208.618914,61.5625768 207.689356,60.1522611 L207.54624,60.1522611 L207.54624,75.4851032 Z" id="Fill-19" fill="#FFF4E4"></path>
                <path d="M246.296438,52.7019032 C244.950038,52.7019032 243.595301,52.7588716 242.233617,52.8700295 C240.871933,52.9825768 239.63808,53.2062821 238.533448,53.5425347 C237.427427,53.8801768 236.521491,54.3678821 235.817027,55.0084295 C235.111175,55.6503663 234.759638,56.4993347 234.759638,57.5567242 C234.759638,58.3584505 234.91248,59.0309558 235.216775,59.5756295 C235.51968,60.1203032 235.928185,60.5607663 236.440901,60.8970189 C236.955006,61.2346611 237.523301,61.4736505 238.148564,61.6181558 C238.772438,61.7626611 239.404648,61.8349137 240.046585,61.8349137 C241.199848,61.8349137 242.22528,61.6348295 243.12288,61.2346611 C244.019091,60.8344926 244.773575,60.2884295 245.382164,59.60064 C245.990754,58.9114611 246.454838,58.1180716 246.777196,57.2204716 C247.095385,56.3228716 247.256564,55.3780295 247.256564,54.3845558 L247.256564,52.7019032 L246.296438,52.7019032 Z M247.256564,49.3907874 C247.256564,47.4510821 246.742459,46.00464 245.718417,45.0486821 C244.692985,44.0955032 243.20208,43.6175242 241.24848,43.6175242 C239.90208,43.6175242 238.652943,43.8579032 237.49968,44.3372716 C236.346417,44.8194189 235.368227,45.4613558 234.567891,46.2603032 L232.740733,44.0982821 C233.670291,43.1701137 234.895806,42.4003453 236.418669,41.7903663 C237.938754,41.1831663 239.661701,40.8774821 241.584733,40.8774821 C242.801912,40.8774821 243.94128,41.0456084 244.995891,41.3832505 C246.054669,41.7195032 246.984227,42.2238821 247.784564,42.8963874 C248.586291,43.5702821 249.211554,44.4192505 249.660354,45.4446821 C250.109154,46.4701137 250.331469,47.6720084 250.331469,49.0489768 L250.331469,58.9031242 C250.331469,59.7673768 250.364817,60.6649768 250.430122,61.5931453 C250.494038,62.5240926 250.589912,63.3091453 250.717743,63.9496926 L247.784564,63.9496926 C247.69008,63.4050189 247.608101,62.8117137 247.545575,62.1711663 C247.480269,61.5306189 247.448312,60.9053558 247.448312,60.2967663 L247.353827,60.2967663 C246.327006,61.8029558 245.166796,62.8839663 243.867638,63.5411874 C242.569869,64.1970189 241.008101,64.5263242 239.180943,64.5263242 C238.316691,64.5263242 237.427427,64.40544 236.513154,64.1650611 C235.601659,63.9232926 234.767975,63.5300716 234.01488,62.9826189 C233.260396,62.4379453 232.636522,61.7293137 232.14048,60.8608926 C231.643048,59.9938611 231.395722,58.9323032 231.395722,57.6789979 C231.395722,55.9421558 231.836185,54.5679663 232.717112,53.55504 C233.596648,52.5435032 234.774922,51.7876295 236.250543,51.2874189 C237.723385,50.7899874 239.414375,50.4690189 241.320733,50.3231242 C243.227091,50.1800084 245.205701,50.1063663 247.256564,50.1063663 L247.256564,49.3907874 Z" id="Fill-20" fill="#FFF4E4"></path>
                <path d="M273.080488,46.5972505 C272.535815,45.7329979 271.742425,45.0188084 270.703099,44.4588505 C269.660994,43.8988926 268.531352,43.6168295 267.314173,43.6168295 C265.998341,43.6168295 264.814509,43.8502611 263.75712,44.3143453 C262.698341,44.7784295 261.793794,45.4203663 261.040699,46.2373768 C260.288994,47.0543874 259.710973,48.0159032 259.310804,49.1205347 C258.910636,50.2265558 258.709162,51.4215032 258.709162,52.7025979 C258.709162,53.9836926 258.910636,55.1703032 259.310804,56.2596505 C259.710973,57.3489979 260.279267,58.3021768 261.017078,59.1191874 C261.754888,59.9361979 262.651099,60.5781347 263.708488,61.0422189 C264.767267,61.5063032 265.951099,61.7383453 267.264152,61.7383453 C268.707815,61.7383453 269.924994,61.4660084 270.918467,60.9213347 C271.911941,60.3766611 272.728952,59.6721979 273.370888,58.8065558 L275.820531,60.6337137 C274.859015,61.8189347 273.682131,62.7651663 272.289878,63.4696295 C270.894846,64.1727032 269.219141,64.5256295 267.264152,64.5256295 C265.439773,64.5256295 263.789078,64.2296716 262.314846,63.6377558 C260.840615,63.0444505 259.583141,62.2191032 258.542425,61.1603242 C257.50032,60.1043242 256.691646,58.8537979 256.113625,57.4129137 C255.538383,55.97064 255.247983,54.4005347 255.247983,52.7025979 C255.247983,51.0032716 255.538383,49.4331663 256.113625,47.9922821 C256.691646,46.5500084 257.50032,45.2994821 258.542425,44.2434821 C259.583141,43.1847032 260.840615,42.3607453 262.314846,41.7660505 C263.789078,41.1755242 265.439773,40.8781768 267.264152,40.8781768 C268.771731,40.8781768 270.300152,41.2060926 271.854973,41.8633137 C273.408404,42.5191453 274.667267,43.4903874 275.630173,44.7714821 L273.080488,46.5972505 Z" id="Fill-21" fill="#FFF4E4"></path>
                <path d="M291.659141,44.1941558 L285.314804,44.1941558 L285.314804,57.3163453 C285.314804,58.1500295 285.394004,58.8392084 285.553794,59.3838821 C285.714973,59.9285558 285.947015,60.3537347 286.251309,60.65664 C286.555604,60.9609347 286.916867,61.1707453 287.333709,61.2819032 C287.749162,61.3944505 288.197962,61.4500295 288.677331,61.4500295 C289.12752,61.4500295 289.601331,61.3861137 290.095983,61.2568926 C290.593415,61.1290611 291.065836,60.9553768 291.514636,60.7288926 L291.659141,63.5634189 C291.082509,63.7899032 290.480867,63.9580295 289.856994,64.0705768 C289.230341,64.1817347 288.550888,64.2387032 287.813078,64.2387032 C287.204488,64.2387032 286.562552,64.1567242 285.891436,63.9969347 C285.217541,63.8385347 284.593667,63.5328505 284.015646,63.0840505 C283.440404,62.6352505 282.965204,62.0266611 282.598383,61.2568926 C282.228783,60.4885137 282.045373,59.4797558 282.045373,58.2306189 L282.045373,44.1941558 L277.383688,44.1941558 L277.383688,41.4541137 L282.045373,41.4541137 L282.045373,35.1097768 L285.314804,35.1097768 L285.314804,41.4541137 L291.659141,41.4541137 L291.659141,44.1941558 Z" id="Fill-22" fill="#FFF4E4"></path>
                <path d="M308.539162,46.7898316 C308.058404,45.8602737 307.328931,45.1002316 306.350741,44.5069263 C305.373941,43.9150105 304.260973,43.6176632 303.010446,43.6176632 C302.433815,43.6176632 301.857183,43.6829684 301.279162,43.8094105 C300.70392,43.9386316 300.191204,44.1470526 299.742404,44.4346737 C299.293604,44.7236842 298.933731,45.0918947 298.661394,45.5406947 C298.387667,45.9894947 298.252888,46.5188842 298.252888,47.1260842 C298.252888,48.1848632 298.683625,48.9935368 299.549267,49.5534947 C300.414909,50.1162316 301.777983,50.5872632 303.637099,50.9721474 C306.295162,51.5168211 308.258488,52.3102105 309.524299,53.3509263 C310.790109,54.3930316 311.42232,55.7936211 311.42232,57.5568632 C311.42232,58.8393474 311.173604,59.9203579 310.677562,60.8012842 C310.180131,61.6836 309.532636,62.4033474 308.730909,62.9646947 C307.930573,63.5260421 307.023246,63.9248211 306.015878,64.1652 C305.005731,64.4069684 303.988636,64.5264632 302.963204,64.5264632 C301.265267,64.5264632 299.613183,64.1735368 298.012509,63.4690737 C296.410446,62.7646105 295.096004,61.6585895 294.070573,60.1524 L296.666109,58.2293684 C297.242741,59.2228421 298.09032,60.0565263 299.213015,60.7290316 C300.335709,61.4029263 301.569562,61.7391789 302.914573,61.7391789 C303.619036,61.7391789 304.291541,61.6752632 304.933478,61.5460421 C305.575415,61.4182105 306.135373,61.1945053 306.614741,60.8735368 C307.095499,60.5525684 307.480383,60.1440632 307.769394,59.6480211 C308.058404,59.1505895 308.202909,58.5336632 308.202909,57.7972421 C308.202909,56.6120211 307.633225,55.7227579 306.495246,55.1294526 C305.357267,54.5361474 303.716299,53.9845263 301.569562,53.4718105 C300.897057,53.3106316 300.182867,53.1105474 299.429773,52.8701684 C298.676678,52.6297895 297.979162,52.2782526 297.338615,51.8127789 C296.698067,51.3486947 296.168678,50.7623368 295.754615,50.0592632 C295.336383,49.3548 295.127962,48.4724842 295.127962,47.4150947 C295.127962,46.2604421 295.351667,45.2766947 295.800467,44.4582947 C296.249267,43.6412842 296.850909,42.9687789 297.604004,42.4407789 C298.355709,41.9113895 299.213015,41.5195579 300.174531,41.2611158 C301.136046,41.0068421 302.12952,40.8776211 303.154952,40.8776211 C304.725057,40.8776211 306.24792,41.2305474 307.722152,41.9350105 C309.196383,42.6408632 310.301015,43.6343368 311.038825,44.9154316 L308.539162,46.7898316 Z" id="Fill-23" fill="#FFF4E4"></path>
                <polygon id="Fill-24" fill="#FF6600" points="65.2121684 131.811032 66.6016421 131.811032 66.6016421 -1.42108547e-14 65.2121684 -1.42108547e-14"></polygon>
                <polygon id="Fill-25" fill="#FF6600" points="0 66.6002526 131.811032 66.6002526 131.811032 65.2107789 0 65.2107789"></polygon>
                <polygon id="Fill-26" fill="#FF6600" points="98.2577432 123.328989 32.3508379 9.17677895 33.5541221 8.48204211 99.4596379 122.634253"></polygon>
                <polygon id="Fill-27" fill="#FF6600" points="122.634669 99.4596379 8.48245895 33.5527326 9.17719579 32.3508379 123.329406 98.2577432"></polygon>
                <polygon id="Fill-28" fill="#FF6600" points="33.5535663 123.328989 32.3516716 122.634253 98.2571874 8.48204211 99.4604716 9.17677895"></polygon>
                <polygon id="Fill-29" fill="#FF6600" points="9.17677895 99.4596379 8.48204211 98.2577432 122.634253 32.3508379 123.328989 33.5527326"></polygon>
            </g>
        </g>
    </g>
</svg>