<?xml version="1.0" encoding="UTF-8"?>
<svg width="42px" height="44px" viewBox="0 0 42 44" version="1.1" xmlns="http://www.w3.org/2000/svg" xmlns:xlink="http://www.w3.org/1999/xlink">
    <!-- Generator: Sketch 58 (84663) - https://sketch.com -->
    <title>pinwheel-2</title>
    <desc>Created with Sketch.</desc>
    <g id="Page-1" stroke="none" stroke-width="1" fill="none" fill-rule="evenodd">
        <g id="pinwheel-2" fill="#FF6600" fill-rule="nonzero">
            <polygon id="Fill-24" points="20.7197643 43.0223063 21.1612397 43.0223063 21.1612397 2.13162821e-13 20.7197643 2.13162821e-13"></polygon>
            <polygon id="Fill-25" points="2.84217094e-14 21.7379109 41.8801211 21.7379109 41.8801211 21.2843953 2.84217094e-14 21.2843953"></polygon>
            <polygon id="Fill-26" points="31.2192852 40.2538201 10.2787831 2.99524395 10.6611008 2.76848613 31.6011614 40.0270623"></polygon>
            <polygon id="Fill-27" points="38.9645294 32.4630113 2.69511894 10.9514046 2.91585664 10.5591136 39.1852671 32.0707202"></polygon>
            <polygon id="Fill-28" points="10.6609242 40.2538201 10.279048 40.0270623 31.2191086 2.76848613 31.6014263 2.99524395"></polygon>
            <polygon id="Fill-29" points="2.91572419 32.4630113 2.6949865 32.0707202 38.9643969 10.5591136 39.1851346 10.9514046"></polygon>
        </g>
    </g>
</svg>