<?xml version="1.0" encoding="UTF-8"?>
<svg width="212px" height="243px" viewBox="0 0 212 243" version="1.1" xmlns="http://www.w3.org/2000/svg" xmlns:xlink="http://www.w3.org/1999/xlink">
    <!-- Generator: Sketch 58 (84663) - https://sketch.com -->
    <title>Group 20 Copy</title>
    <desc>Created with Sketch.</desc>
    <g id="Page-1" stroke="none" stroke-width="1" fill="none" fill-rule="evenodd">
        <g id="Group-15" transform="translate(-31.000000, -221.000000)" fill="#FF6600">
            <g id="Group-20-Copy" transform="translate(152.500000, 341.080536) rotate(114.000000) translate(-152.500000, -341.080536) translate(45.000000, 223.080536)">
                <circle id="Oval-Copy-25" cx="81.8280175" cy="37.6188856" r="6"></circle>
                <circle id="Oval-Copy-26" cx="104.628018" cy="39.6188856" r="6"></circle>
                <circle id="Oval-Copy-27" cx="83.0280175" cy="54.4188856" r="6"></circle>
                <circle id="Oval-Copy-28" cx="66.2280175" cy="66.4188856" r="6"></circle>
                <circle id="Oval-Copy-29" cx="44.6280175" cy="56.8188856" r="6"></circle>
                <circle id="Oval-Copy-31" cx="42.6280175" cy="74.8188856" r="6"></circle>
                <circle id="Oval-Copy-32" cx="78.2280175" cy="86.8188856" r="6"></circle>
                <circle id="Oval-Copy-33" cx="110.628018" cy="74.8188856" r="6"></circle>
                <circle id="Oval-Copy-34" cx="107.028018" cy="97.2188856" r="6"></circle>
                <circle id="Oval-Copy-35" cx="56.6280175" cy="103.218886" r="6"></circle>
                <circle id="Oval-Copy-36" cx="96.2280175" cy="69.6188856" r="6"></circle>
                <circle id="Oval-Copy-25" cx="125.328018" cy="92.1188856" r="6"></circle>
                <circle id="Oval-Copy-26" cx="148.128018" cy="94.1188856" r="6"></circle>
                <circle id="Oval-Copy-27" cx="156.274858" cy="128.018886" r="6"></circle>
                <circle id="Oval-Copy-28" cx="130.143143" cy="124.518886" r="6"></circle>
                <circle id="Oval-Copy-29" cx="88.1280175" cy="111.318886" r="6"></circle>
                <circle id="Oval-Copy-31" cx="86.1280175" cy="129.318886" r="6"></circle>
                <circle id="Oval-Copy-32" cx="108.228018" cy="137.555829" r="6"></circle>
                <circle id="Oval-Copy-33" cx="174.44334" cy="144.055181" r="6"></circle>
                <circle id="Oval-Copy-34" cx="150.528018" cy="151.718886" r="6"></circle>
                <circle id="Oval-Copy-35" cx="116.628018" cy="159.955829" r="6"></circle>
                <circle id="Oval-Copy-36" cx="184.582264" cy="127.081006" r="6"></circle>
                <circle id="Oval-Copy-25" transform="translate(149.663281, 178.163883) rotate(9.000000) translate(-149.663281, -178.163883) " cx="149.663281" cy="178.163883" r="6"></circle>
                <circle id="Oval-Copy-26" transform="translate(173.228414, 176.605670) rotate(9.000000) translate(-173.228414, -176.605670) " cx="173.228414" cy="176.60567" r="6"></circle>
                <circle id="Oval-Copy-27" transform="translate(125.483461, 182.119515) rotate(9.000000) translate(-125.483461, -182.119515) " cx="125.483461" cy="182.119515" r="6"></circle>
                <circle id="Oval-Copy-28" transform="translate(107.013084, 191.343676) rotate(9.000000) translate(-107.013084, -191.343676) " cx="107.013084" cy="191.343676" r="6"></circle>
                <circle id="Oval-Copy-29" transform="translate(87.180786, 178.482884) rotate(9.000000) translate(-87.180786, -178.482884) " cx="87.1807862" cy="178.482884" r="6"></circle>
                <circle id="Oval-Copy-31" transform="translate(82.389589, 195.948405) rotate(9.000000) translate(-82.389589, -195.948405) " cx="82.3895892" cy="195.948405" r="6"></circle>
                <circle id="Oval-Copy-32" transform="translate(115.674081, 213.369732) rotate(9.000000) translate(-115.674081, -213.369732) " cx="115.674081" cy="213.369732" r="6"></circle>
                <circle id="Oval-Copy-33" transform="translate(171.498152, 206.504995) rotate(9.000000) translate(-171.498152, -206.504995) " cx="171.498152" cy="206.504995" r="6"></circle>
                <circle id="Oval-Copy-34" transform="translate(142.492586, 228.147003) rotate(9.000000) translate(-142.492586, -228.147003) " cx="142.492586" cy="228.147003" r="6"></circle>
                <circle id="Oval-Copy-35" transform="translate(91.774487, 226.188836) rotate(9.000000) translate(-91.774487, -226.188836) " cx="91.7744871" cy="226.188836" r="6"></circle>
                <circle id="Oval-Copy-36" transform="translate(136.143143, 199.197313) rotate(9.000000) translate(-136.143143, -199.197313) " cx="136.143143" cy="199.197313" r="6"></circle>
                <circle id="Oval-Copy-25" transform="translate(15.332485, 134.515084) rotate(-54.000000) translate(-15.332485, -134.515084) " cx="15.3324851" cy="134.515084" r="6"></circle>
                <circle id="Oval-Copy-26" transform="translate(30.352023, 117.245067) rotate(-54.000000) translate(-30.352023, -117.245067) " cx="30.3520228" cy="117.245067" r="6"></circle>
                <circle id="Oval-Copy-27" transform="translate(29.629313, 143.419056) rotate(-54.000000) translate(-29.629313, -143.419056) " cx="29.6293129" cy="143.419056" r="6"></circle>
                <circle id="Oval-Copy-28" transform="translate(29.462725, 164.063964) rotate(-54.000000) translate(-29.462725, -164.063964) " cx="29.4627246" cy="164.063964" r="6"></circle>
                <circle id="Oval-Copy-29" transform="translate(9.000000, 175.895993) rotate(-54.000000) translate(-9.000000, -175.895993) " cx="9" cy="175.895993" r="6"></circle>
                <circle id="Oval-Copy-31" transform="translate(22.386735, 188.094161) rotate(-54.000000) translate(-22.386735, -188.094161) " cx="22.3867354" cy="188.094161" r="6"></circle>
                <circle id="Oval-Copy-32" transform="translate(53.020094, 166.346580) rotate(-54.000000) translate(-53.020094, -166.346580) " cx="53.0200943" cy="166.34658" r="6"></circle>
                <circle id="Oval-Copy-33" transform="translate(62.356133, 133.081006) rotate(-54.000000) translate(-62.356133, -133.081006) " cx="62.3561326" cy="133.081006" r="6"></circle>
                <circle id="Oval-Copy-34" transform="translate(78.362086, 149.159857) rotate(-54.000000) translate(-78.362086, -149.159857) " cx="78.3620863" cy="149.159857" r="6"></circle>
                <circle id="Oval-Copy-35" transform="translate(53.591812, 193.461025) rotate(-54.000000) translate(-53.591812, -193.461025) " cx="53.5918116" cy="193.461025" r="6"></circle>
                <circle id="Oval-Copy-36" transform="translate(49.685137, 141.674367) rotate(-54.000000) translate(-49.685137, -141.674367) " cx="49.6851365" cy="141.674367" r="6"></circle>
                <circle id="Oval-Copy-25" transform="translate(159.883735, 17.197274) rotate(-26.000000) translate(-159.883735, -17.197274) " cx="159.883735" cy="17.1972741" r="6"></circle>
                <circle id="Oval-Copy-26" transform="translate(181.252982, 9.000000) rotate(-26.000000) translate(-181.252982, -9.000000) " cx="181.252982" cy="9" r="6"></circle>
                <circle id="Oval-Copy-27" transform="translate(168.326923, 31.770969) rotate(-26.000000) translate(-168.326923, -31.770969) " cx="168.326923" cy="31.7709687" r="6"></circle>
                <circle id="Oval-Copy-28" transform="translate(158.487637, 49.921132) rotate(-26.000000) translate(-158.487637, -49.921132) " cx="158.487637" cy="49.9211325" r="6"></circle>
                <circle id="Oval-Copy-29" transform="translate(134.865323, 50.761526) rotate(-26.000000) translate(-134.865323, -50.761526) " cx="134.865323" cy="50.7615264" r="6"></circle>
                <circle id="Oval-Copy-31" transform="translate(140.958415, 67.816562) rotate(-26.000000) translate(-140.958415, -67.816562) " cx="140.958415" cy="67.8165615" r="6"></circle>
                <circle id="Oval-Copy-32" transform="translate(171.680803, 72.056348) rotate(-26.000000) translate(-171.680803, -72.056348) " cx="171.680803" cy="72.0563482" r="6"></circle>
                <circle id="Oval-Copy-33" transform="translate(206.788994, 55.595894) rotate(-26.000000) translate(-206.788994, -55.595894) " cx="206.788994" cy="55.5958945" r="6"></circle>
                <circle id="Oval-Copy-34" transform="translate(201.528541, 83.641877) rotate(-26.000000) translate(-201.528541, -83.641877) " cx="201.528541" cy="83.6418768" r="6"></circle>
                <circle id="Oval-Copy-35" transform="translate(173.587377, 99.241877) rotate(-26.000000) translate(-173.587377, -99.241877) " cx="173.587377" cy="99.2418768" r="6"></circle>
                <circle id="Oval-Copy-36" transform="translate(186.854246, 39.646139) rotate(-26.000000) translate(-186.854246, -39.646139) " cx="186.854246" cy="39.646139" r="6"></circle>
            </g>
        </g>
    </g>
</svg>