<?xml version="1.0" encoding="UTF-8"?>
<svg width="91px" height="90px" viewBox="0 0 91 90" version="1.1" xmlns="http://www.w3.org/2000/svg" xmlns:xlink="http://www.w3.org/1999/xlink">
    <!-- Generator: Sketch 58 (84663) - https://sketch.com -->
    <title>Group 19</title>
    <desc>Created with Sketch.</desc>
    <g id="D3" stroke="none" stroke-width="1" fill="none" fill-rule="evenodd">
        <g id="Approach" transform="translate(-911.000000, -2648.000000)" fill="#3062D5">
            <g id="Group-19" transform="translate(911.000000, 2648.325000)">
                <circle id="Oval" cx="30.4" cy="6" r="6"></circle>
                <circle id="Oval-Copy-3" cx="55.6" cy="12" r="6"></circle>
                <circle id="Oval-Copy-4" cx="30.4" cy="38.85" r="6"></circle>
                <circle id="Oval-Copy-12" cx="6" cy="43.6" r="6"></circle>
                <circle id="Oval-Copy-5" cx="55.6" cy="44" r="6"></circle>
                <circle id="Oval-Copy-6" cx="42.4" cy="68" r="6"></circle>
                <circle id="Oval-Copy-7" cx="72.8" cy="62" r="6"></circle>
                <circle id="Oval-Copy-8" cx="84.8" cy="38" r="6"></circle>
                <circle id="Oval-Copy-9" cx="18.4" cy="24" r="6"></circle>
                <circle id="Oval-Copy-10" cx="20.8" cy="70.8" r="6"></circle>
                <circle id="Oval-Copy-11" cx="56" cy="82.8" r="6"></circle>
            </g>
        </g>
    </g>
</svg>